%YAML 1.1
%TAG !u! tag:unity3d.com,2011:
--- !u!114 &11400000
MonoBehaviour:
  m_ObjectHideFlags: 0
  m_CorrespondingSourceObject: {fileID: 0}
  m_PrefabInstance: {fileID: 0}
  m_PrefabAsset: {fileID: 0}
  m_GameObject: {fileID: 0}
  m_Enabled: 1
  m_EditorHideFlags: 0
  m_Script: {fileID: 11500000, guid: ae9d74908841cc04eb9c8bf92be1125d, type: 3}
  m_Name: Rustling
  m_EditorClassIdentifier: 
  id: Rustling
  audioClips:
  - {fileID: 8300000, guid: f6af8d4691de58c49a4bcb20f2e0f5f7, type: 3}
  pitchVariation: 0.2
  volumeVariation: 0.2
  pitchBase: 1
  volumeBase: 1
