%YAML 1.1
%TAG !u! tag:unity3d.com,2011:
--- !u!114 &11400000
MonoBehaviour:
  m_ObjectHideFlags: 0
  m_CorrespondingSourceObject: {fileID: 0}
  m_PrefabInstance: {fileID: 0}
  m_PrefabAsset: {fileID: 0}
  m_GameObject: {fileID: 0}
  m_Enabled: 1
  m_EditorHideFlags: 0
  m_Script: {fileID: 11500000, guid: 46e1caafc31b48849bf4699b05f97626, type: 3}
  m_Name: Ticket
  m_EditorClassIdentifier: 
  id: Ticket
  description: Paper Scrap
  inventorySprite: {fileID: 21300000, guid: 8ff8d6d98ce273e46b76350a16978d6b, type: 3}
